…
I will explore this by retrieving the genre for the list of movies using
**Rate** and match this with the box office gross using **HighGross**. I
will first explore the distribution of genres with a simple pie chart.
Then I will take a look at some numerical summaries for the gross box
office earnings at each level of genre. I will then plot a box plot
visualizing box office earnings by genre.

``` r
## Retrieving Movie Genres
Genre <- Rate(mov)
Genre
```

    ## # A tibble: 41 × 3
    ##    Title                                   Rated `Genre(s)`                  
    ##    <chr>                                   <chr> <chr>                       
    ##  1 Harry Potter and the Chamber of Secrets PG    Adventure, Family, Fantasy  
    ##  2 Up                                      PG    Animation, Adventure, Comedy
    ##  3 The Little Mermaid                      G     Animation, Adventure, Family
    ##  4 The Hunger Games                        PG-13 Action, Adventure, Sci-Fi   
    ##  5 Dances with Wolves                      PG-13 Adventure, Drama, Western   
    ##  6 Matilda                                 PG    Comedy, Family, Fantasy     
    ##  7 Rogue One: A Star Wars Story            PG-13 Action, Adventure, Sci-Fi   
    ##  8 Pitch Perfect                           PG-13 Comedy, Music, Romance      
    ##  9 Hook                                    PG    Adventure, Comedy, Family   
    ## 10 Full Metal Jacket                       16+   Drama, War                  
    ## # ℹ 31 more rows

``` r
## Retrieving Box Office Gross
GrossMov <- HighGross(mov)
GrossMov
```

    ## # A tibble: 41 × 3
    ##    Title                        `Gross Box Office ($)` Year 
    ##    <chr>                        <chr>                  <chr>
    ##  1 Avengers: Endgame            858373000              2019 
    ##  2 Charlotte's Web              82985708               2006 
    ##  3 The Notebook                 81417274               2004 
    ##  4 Avatar                       785221649              2009 
    ##  5 Titanic                      674292608              1997 
    ##  6 Holes                        67406573               2003 
    ##  7 Pitch Perfect                65298093               2012 
    ##  8 The Goonies                  63711145               1985 
    ##  9 Rogue One: A Star Wars Story 533539991              2016 
    ## 10 Full Metal Jacket            46357676               1987 
    ## # ℹ 31 more rows
…
``` r
## Combining this data with previously generated table 1 that includes gross
table2 <- merge(Table1,runs,by.x="Title",by.y="Title")
table2[,-8]
```

    ## # A tibble: 41 × 7
    ##    Title                  Gross Year  Rated  `Genre(s).x`                 PrimaryGenre Runtime
    ##    <chr>                  <dbl> <chr> <chr>  <chr>                        <chr>        <chr>  
    ##  1 American Pie       102561004 1999  R      Comedy                       Comedy       95     
    ##  2 Avatar             785221649 2009  PG-13  Action, Adventure, Fantasy   Action       162    
    ##  3 Avengers: Endgame  858373000 2019  PG-13  Action, Adventure, Drama     Action       181    
    ##  4 Charlotte's Web     82985708 2006  G      Adventure, Comedy, Family    Adventure    97     
    ##  5 Dances with Wolves 184208848 1990  PG-13  Adventure, Drama, Western    Adventure    181    
    ##  6 Dune               108327830 2021  PG-13  Action, Adventure, Drama     Action       155    
    ##  7 Finding Nemo       380843261 2003  G      Animation, Adventure, Comedy Animation    100    
    ##  8 Friday the 13th     39754601 1980  R      Horror, Mystery, Thriller    Horror       95     
    ##  9 Full Metal Jacket   46357676 1987  16+    Drama, War                   Drama        116    
    ## 10 Gone with the Wind 200882193 1939  Passed Drama, Romance, War          Drama        238    
    ## # ℹ 31 more rows
…
## Numerical Summary
YrGrossSum <- table3 %>%                               
  group_by(ReleaseYear) %>% 
  summarize(min = min(as.numeric(Gross)),
            q1 = quantile(as.numeric(Gross), 0.25),
            median = median(as.numeric(Gross)),
            mean = mean(as.numeric(Gross)),
            q3 = quantile(as.numeric(Gross), 0.75),
            max = max(as.numeric(Gross)))
YrGrossSum
```

    ## # A tibble: 25 × 7
    ##    ReleaseYear       min         q1     median       mean         q3       max
    ##    <chr>           <dbl>      <dbl>      <dbl>      <dbl>      <dbl>     <dbl>
    ##  1 1939        200882193 200882193  200882193  200882193  200882193  200882193
    ##  2 1980         39754601  39754601   39754601   39754601   39754601   39754601
    ##  3 1985         45875171  50334164.  54793158   54793158   59252152.  63711145
    ##  4 1987         46357676  46357676   46357676   46357676   46357676   46357676
    ##  5 1989        111543479 111543479  111543479  111543479  111543479  111543479
    ##  6 1990        184208848 209596947. 234985046. 234985046. 260373144. 285761243
    ##  7 1991        119654823 119654823  119654823  119654823  119654823  119654823
    ##  8 1996         33459416  36141758.  38824099  126150928. 172496684. 306169268
    ##  9 1997        674292608 674292608  674292608  674292608  674292608  674292608
    ## 10 1998         18254458  89873052  161491646  132265236. 189270624. 217049603
    ## # ℹ 15 more rows
…
